{
	"info": {
		"_postman_id": "e1a2f2c0-be97-4f55-bbee-cdacdf3d0160",
		"name": "PS_Python_REST_API",
		"description": "Calls made to Python Flask REST API created while following Pluralsights: Building a REST API using Python and Flask.",
		"schema": "https://schema.getpostman.com/json/collection/v2.1.0/collection.json"
	},
	"item": [
		{
			"name": "POST json-example",
			"request": {
				"method": "POST",
				"header": [
					{
						"key": "Content-Type",
						"value": "application/json",
						"type": "text"
					}
				],
				"body": {
					"mode": "raw",
					"raw": "{\n    \"language\" : \"Python\",\n    \"framework\" : \"Flask\",\n    \"website\" : \"Scotch\",\n    \"version_info\" : {\n        \"python\" : 3.7,\n        \"flask\" : 0.12\n    },\n    \"examples\" : [\"query\", \"form\", \"json\"],\n    \"boolean_test\" : true\n}"
				},
				"url": {
					"raw": "127.0.0.1:5000/json-example",
					"host": [
						"127",
						"0",
						"0",
						"1"
					],
					"port": "5000",
					"path": [
						"json-example"
					]
				},
				"description": "POST a book"
			},
			"response": []
		},
		{
			"name": "POST books",
			"request": {
				"method": "POST",
				"header": [
					{
						"key": "Content-Type",
						"value": "application/json",
						"type": "text"
					}
				],
				"body": {
					"mode": "raw",
					"raw": "{\n\t\"name\": \"Philosophy As A Way of Life\",\n\t\"price\": 34.99,\n\t\"isbn\": 666039339999\n}"
				},
				"url": {
					"raw": "127.0.0.1:5000/books?token=eyJ0eXAiOiJKV1QiLCJhbGciOiJIUzI1NiJ9.eyJleHAiOjE1NDI1NTIxMzl9.2mebifpm3GgfqvBZfQOGrQeTutegU8CxsA2seTsLA6Y",
					"host": [
						"127",
						"0",
						"0",
						"1"
					],
					"port": "5000",
					"path": [
						"books"
					],
					"query": [
						{
							"key": "token",
							"value": "eyJ0eXAiOiJKV1QiLCJhbGciOiJIUzI1NiJ9.eyJleHAiOjE1NDI1NTIxMzl9.2mebifpm3GgfqvBZfQOGrQeTutegU8CxsA2seTsLA6Y"
						}
					]
				},
				"description": "POST a book"
			},
			"response": []
		},
		{
			"name": "PUT book",
			"request": {
				"method": "PUT",
				"header": [
					{
						"key": "Content-Type",
						"type": "text",
						"value": "application/json"
					}
				],
				"body": {
					"mode": "raw",
					"raw": "{\n\t\"name\": \"Goodbye Dan\",\n\t\"price\": 24.99,\n\t\"isbn\": 123444439999\n}"
				},
				"url": {
					"raw": "127.0.0.1:5000/books/123039339999",
					"host": [
						"127",
						"0",
						"0",
						"1"
					],
					"port": "5000",
					"path": [
						"books",
						"123039339999"
					]
				},
				"description": "POST a book"
			},
			"response": []
		},
		{
			"name": "DELETE  book",
			"request": {
				"method": "DELETE",
				"header": [
					{
						"key": "Content-Type",
						"type": "text",
						"value": "application/json"
					}
				],
				"body": {
					"mode": "raw",
					"raw": ""
				},
				"url": {
					"raw": "127.0.0.1:5000/books/555039339999",
					"host": [
						"127",
						"0",
						"0",
						"1"
					],
					"port": "5000",
					"path": [
						"books",
						"555039339999"
					]
				},
				"description": "POST a book"
			},
			"response": []
		},
		{
			"name": "PATCH book",
			"request": {
				"method": "PATCH",
				"header": [
					{
						"key": "Content-Type",
						"type": "text",
						"value": "application/json"
					}
				],
				"body": {
					"mode": "raw",
					"raw": "{\n\t\"name\": \"Different Choices Make the Man\",\n\t\"price\": 15.32\n}"
				},
				"url": {
					"raw": "127.0.0.1:5000/books/123039339999",
					"host": [
						"127",
						"0",
						"0",
						"1"
					],
					"port": "5000",
					"path": [
						"books",
						"123039339999"
					]
				},
				"description": "POST a book"
			},
			"response": []
		},
		{
			"name": "GET books",
			"protocolProfileBehavior": {
				"disableBodyPruning": true
			},
			"request": {
				"method": "GET",
				"header": [],
				"body": {
					"mode": "raw",
					"raw": ""
				},
				"url": {
					"raw": "127.0.0.1:5000/books",
					"host": [
						"127",
						"0",
						"0",
						"1"
					],
					"port": "5000",
					"path": [
						"books"
					]
				},
				"description": "POST a book"
			},
			"response": []
		},
		{
			"name": "POST login",
			"request": {
				"method": "POST",
				"header": [
					{
						"key": "Content-Type",
						"value": "application/json",
						"type": "text"
					}
				],
				"body": {
					"mode": "raw",
					"raw": "{\n\t\"username\": \"user1\",\n\t\"password\": \"password\"\n}"
				},
				"url": {
					"raw": "127.0.0.1:5000/login",
					"host": [
						"127",
						"0",
						"0",
						"1"
					],
					"port": "5000",
					"path": [
						"login"
					]
				},
				"description": "POST a book"
			},
			"response": []
		}
	]
}